{
    "clean-rules": {
        "drupal/clean_package": [
            ".editorconfig",
            ".gitattributes",
            ".gitignore",
            "docker-compose.yml",
            "examples",
            "phpcs.xml",
            "README.md"
        ]
    }
}
